{
  "category": "Events",
  "config": {
    "color": [
      140,
      1,
      0.74
    ],
    "func": "scene",
    "blockText": "scene {SCENE}",
    "eventBlock": true,
    "args": [
      {
        "type": "field_dropdown",
        "name": "SCENE",
        "options": [
          [
            "1",
            "1"
          ],
          [
            "2",
            "2"
          ],
          [
            "3",
            "3"
          ]
        ]
      }
    ]
  }
}