{
  "category": "Sprites",
  "config": {
    "func": "showHideSprite",
    "blockText": "{OPTION}{SPRITE}",
    "inline": false,
    "args": [
      {
        "name": "OPTION",
        "type": "field_dropdown",
        "options": [
          [
            "show",
            "\"show\""
          ],
          [
            "hide",
            "\"hide\""
          ]
        ]
      },
      {
        "name": "SPRITE",
        "type": "Sprite",
        "defer": true
      }
    ]
  }
}